…
Observations are the level of items in orders by user. There are
user/order variables – and item variables. order\_id, product\_id,
add\_to\_cart\_order, reordered, user\_id, eval\_set, order\_number,
order\_dow, order\_hour\_of\_day, days\_since\_prior\_order,
product\_name, aisle\_id, department\_id, aisle, department

How many aisles and which are most items from?

``` r
instacart %>%
  count(aisle) %>%
  arrange(desc(n))
```

    ## # A tibble: 134 x 2
    ##    aisle                              n
    ##    <chr>                          <int>
    ##  1 fresh vegetables              150609
    ##  2 fresh fruits                  150473
    ##  3 packaged vegetables fruits     78493
    ##  4 yogurt                         55240
    ##  5 packaged cheese                41699
    ##  6 water seltzer sparkling water  36617
    ##  7 milk                           32644
    ##  8 chips pretzels                 31269
    ##  9 soy lactosefree                26240
    ## 10 bread                          23635
    ## # … with 124 more rows
…
                   activity_1:activity_1440,
                   names_to = "activity_for_minute",
                   values_to = "activity_count") %>%
  separate(activity_for_minute, c("word", "minute_of_the_day"), "_") %>%
  select(-word) %>%
  mutate(
    day = factor(day, levels = c("Monday", "Tuesday", "Wednesday", "Thursday", "Friday", "Saturday", "Sunday"))
        )%>%
  mutate(day_type = case_when(day %in% c("Monday", "Tuesday", "Wednesday", "Thursday", "Friday") ~ "Weekday",
                              day %in% c("Saturday", "Sunday") ~ "Weekend")
        )
accelero_data
```

    ## # A tibble: 50,400 x 6
    ##     week day_id day    minute_of_the_day activity_count day_type
    ##    <dbl>  <dbl> <fct>  <chr>                      <dbl> <chr>   
    ##  1     1      1 Friday 1                           88.4 Weekday 
    ##  2     1      1 Friday 2                           82.2 Weekday 
    ##  3     1      1 Friday 3                           64.4 Weekday 
    ##  4     1      1 Friday 4                           70.0 Weekday 
    ##  5     1      1 Friday 5                           75.0 Weekday 
    ##  6     1      1 Friday 6                           66.3 Weekday 
    ##  7     1      1 Friday 7                           53.8 Weekday 
    ##  8     1      1 Friday 8                           47.8 Weekday 
    ##  9     1      1 Friday 9                           55.5 Weekday 
    ## 10     1      1 Friday 10                          43.0 Weekday 
    ## # … with 50,390 more rows
…
